lecture6
…
diamonds %>% filter(between(depth, 60, 61))

# A tibble: 8,451 x 10
   carat cut       color clarity depth table price     x     y     z
   <dbl> <ord>     <ord> <ord>   <dbl> <dbl> <int> <dbl> <dbl> <dbl>
 1  0.22 Premium   F     SI1      60.4    61   342  3.88  3.84  2.33
 2  0.2  Premium   E     SI2      60.2    62   345  3.79  3.75  2.27
 3  0.32 Premium   E     I1       60.9    58   345  4.38  4.42  2.68
 4  0.23 Very Good H     VS1      61      57   353  3.94  3.96  2.41
 5  0.23 Very Good G     VVS2     60.4    58   354  3.97  4.01  2.41
 6  0.23 Very Good D     VS2      60.5    61   357  3.96  3.97  2.4 
 7  0.23 Very Good F     VS1      60.9    57   357  3.96  3.99  2.42
 8  0.23 Very Good F     VS1      60      57   402  4     4.03  2.41
 9  0.23 Very Good E     VS1      60.7    59   402  3.97  4.01  2.42
10  0.26 Very Good D     VS2      60.8    59   403  4.13  4.16  2.52
# ... with 8,441 more rows

mpg %>% filter(between(displ,3.5,5.4)) %>%
  summarize(min_displ = min(displ),
            max_displ = max(displ))

# A tibble: 1 x 2
  min_displ max_displ
      <dbl>     <dbl>
1       3.5       5.4

## Other select helpers: starts_with, ends_with, contains, everything, rename, ...

starwars %>% select(ends_with("color"))

# A tibble: 87 x 3
   hair_color    skin_color  eye_color
   <chr>         <chr>       <chr>    
 1 blond         fair        blue     
 2 <NA>          gold        yellow   
 3 <NA>          white, blue red      
 4 none          white       yellow   
 5 brown         light       brown    
 6 brown, grey   light       blue     
 7 brown         light       blue     
 8 <NA>          white, red  red      
 9 black         light       brown    
10 auburn, white fair        blue-gray
# ... with 77 more rows

starwars %>% select(contains("_"))

# A tibble: 87 x 4
   hair_color    skin_color  eye_color birth_year
   <chr>         <chr>       <chr>          <dbl>
 1 blond         fair        blue            19  
 2 <NA>          gold        yellow         112  
 3 <NA>          white, blue red             33  
 4 none          white       yellow          41.9
 5 brown         light       brown           19  
 6 brown, grey   light       blue            52  
 7 brown         light       blue            47  
 8 <NA>          white, red  red             NA  
 9 black         light       brown           24  
10 auburn, white fair        blue-gray       57  
# ... with 77 more rows

starwars %>% select(everything())

# A tibble: 87 x 13
   name  height  mass hair_color skin_color eye_color birth_year gender
   <chr>  <int> <dbl> <chr>      <chr>      <chr>          <dbl> <fct> 
 1 Luke~    172    77 blond      fair       blue            19   male  
 2 C-3PO    167    75 <NA>       gold       yellow         112   hi    
 3 R2-D2     96    32 <NA>       white, bl~ red             33   hi    
 4 Dart~    202   136 none       white      yellow          41.9 male  
 5 Leia~    150    49 brown      light      brown           19   hi    
 6 Owen~    178   120 brown, gr~ light      blue            52   male  
 7 Beru~    165    75 brown      light      blue            47   hi    
 8 R5-D4     97    32 <NA>       white, red red             NA   hi    
 9 Bigg~    183    84 black      light      brown           24   male  
10 Obi-~    182    77 auburn, w~ fair       blue-gray       57   male  
# ... with 77 more rows, and 5 more variables: homeworld <chr>,
#   species <chr>, films <list>, vehicles <list>, starships <list>

starwars %>% select(gender, everything())

# A tibble: 87 x 13
   gender name  height  mass hair_color skin_color eye_color birth_year
   <fct>  <chr>  <int> <dbl> <chr>      <chr>      <chr>          <dbl>
 1 male   Luke~    172    77 blond      fair       blue            19  
 2 hi     C-3PO    167    75 <NA>       gold       yellow         112  
 3 hi     R2-D2     96    32 <NA>       white, bl~ red             33  
 4 male   Dart~    202   136 none       white      yellow          41.9
 5 hi     Leia~    150    49 brown      light      brown           19  
 6 male   Owen~    178   120 brown, gr~ light      blue            52  
 7 hi     Beru~    165    75 brown      light      blue            47  
 8 hi     R5-D4     97    32 <NA>       white, red red             NA  
 9 male   Bigg~    183    84 black      light      brown           24  
10 male   Obi-~    182    77 auburn, w~ fair       blue-gray       57  
# ... with 77 more rows, and 5 more variables: homeworld <chr>,
#   species <chr>, films <list>, vehicles <list>, starships <list>

starwars %>% rename(Name = name)

# A tibble: 87 x 13
   Name  height  mass hair_color skin_color eye_color birth_year gender
   <chr>  <int> <dbl> <chr>      <chr>      <chr>          <dbl> <fct> 
 1 Luke~    172    77 blond      fair       blue            19   male  
 2 C-3PO    167    75 <NA>       gold       yellow         112   hi    
 3 R2-D2     96    32 <NA>       white, bl~ red             33   hi    
 4 Dart~    202   136 none       white      yellow          41.9 male  
 5 Leia~    150    49 brown      light      brown           19   hi    
 6 Owen~    178   120 brown, gr~ light      blue            52   male  
 7 Beru~    165    75 brown      light      blue            47   hi    
 8 R5-D4     97    32 <NA>       white, red red             NA   hi    
 9 Bigg~    183    84 black      light      brown           24   male  
10 Obi-~    182    77 auburn, w~ fair       blue-gray       57   male  
# ... with 77 more rows, and 5 more variables: homeworld <chr>,
#   species <chr>, films <list>, vehicles <list>, starships <list>

## Multiple groupings
grp <- diamonds %>% group_by(cut, color)
summarize(grp, avg_price = mean(price),
          median_carat = median(carat),
          count = n())

# A tibble: 35 x 5
# Groups:   cut [?]
   cut   color avg_price median_carat count
   <ord> <ord>     <dbl>        <dbl> <int>
 1 Fair  D         4291.         0.9    163
 2 Fair  E         3682.         0.9    224
 3 Fair  F         3827.         0.9    312
 4 Fair  G         4239.         0.98   314
 5 Fair  H         5136.         1.01   303
 6 Fair  I         4685.         1.01   175
 7 Fair  J         4976.         1.03   119
 8 Good  D         3405.         0.7    662
 9 Good  E         3424.         0.7    933
10 Good  F         3496.         0.71   909
# ... with 25 more rows
…
