lecture7
…
glance(mod)  ## Concise one row summary

# A tibble: 1 x 11
  r.squared adj.r.squared sigma statistic  p.value    df logLik   AIC   BIC
*     <dbl>         <dbl> <dbl>     <dbl>    <dbl> <int>  <dbl> <dbl> <dbl>
1     0.551         0.542 0.239      59.0 6.71e-10     2   1.73  2.53  8.27
# ... with 2 more variables: deviance <dbl>, df.residual <int>

augment(mod) ## Add columns from fit to original data that were modeled

# A tibble: 50 x 9
   Sepal.Length Sepal.Width .fitted .se.fit  .resid   .hat .sigma .cooksd
 *        <dbl>       <dbl>   <dbl>   <dbl>   <dbl>  <dbl>  <dbl>   <dbl>
 1          5.1         3.5    5.06  0.0344  0.0443 0.0207  0.241 3.73e-4
 2          4.9         3      4.71  0.0512  0.190  0.0460  0.239 1.60e-2
 3          4.7         3.2    4.85  0.0395 -0.149  0.0274  0.240 5.61e-3
 4          4.6         3.1    4.78  0.0448 -0.180  0.0353  0.240 1.07e-2
 5          5           3.6    5.12  0.0371 -0.125  0.0242  0.240 3.48e-3
 6          5.4         3.9    5.33  0.0542  0.0681 0.0516  0.241 2.34e-3
 7          4.6         3.4    4.99  0.0338 -0.387  0.0201  0.234 2.75e-2
 8          5           3.4    4.99  0.0338  0.0133 0.0201  0.241 3.27e-5
 9          4.4         2.9    4.64  0.0582 -0.241  0.0596  0.238 3.45e-2
10          4.9         3.1    4.78  0.0448  0.120  0.0353  0.240 4.84e-3
# ... with 40 more rows, and 1 more variable: .std.resid <dbl>
…
Author

Date

43c8686

Shengtong

2018-11-06

## Reminder: we can always check the model matrix to see the equation fit by lm!
model_matrix(iris, Sepal.Length ~ Species)

# A tibble: 150 x 3
   `(Intercept)` Speciesversicolor Speciesvirginica
           <dbl>             <dbl>            <dbl>
 1             1                 0                0
 2             1                 0                0
 3             1                 0                0
 4             1                 0                0
 5             1                 0                0
 6             1                 0                0
 7             1                 0                0
 8             1                 0                0
 9             1                 0                0
10             1                 0                0
# ... with 140 more rows
…
