lecture8
…
## Reminder: we can always check the model matrix to see the equation fit by lm!
library(modelr)

Attaching package: 'modelr'

The following object is masked from 'package:broom':

    bootstrap

model_matrix(iris, Sepal.Length ~ Sepal.Width + Species)

# A tibble: 150 x 4
   `(Intercept)` Sepal.Width Speciesversicolor Speciesvirginica
           <dbl>       <dbl>             <dbl>            <dbl>
 1             1         3.5                 0                0
 2             1         3                   0                0
 3             1         3.2                 0                0
 4             1         3.1                 0                0
 5             1         3.6                 0                0
 6             1         3.9                 0                0
 7             1         3.4                 0                0
 8             1         3.4                 0                0
 9             1         2.9                 0                0
10             1         3.1                 0                0
# ... with 140 more rows
…
## Interpretation of coefficients
## For every unit increase of age, the log odds of survival increase
##    by the coefficient
## log odds = log((Pr survived) / (Pr did not survive))

## Adding predictions using modelr
## Make a clean grid of potential values
titanic_age <- titanic_train %>%
  data_grid(Age)
titanic_age

# A tibble: 89 x 1
     Age
   <dbl>
 1  0.42
 2  0.67
 3  0.75
 4  0.83
 5  0.92
 6  1   
 7  2   
 8  3   
 9  4   
10  5   
# ... with 79 more rows
…
    Null deviance: 964.52  on 713  degrees of freedom
Residual deviance: 749.96  on 711  degrees of freedom
  (177 observations deleted due to missingness)
AIC: 755.96

Number of Fisher Scoring iterations: 4

## What do the coefficients in the model mean here?
titanic_age.sex <- titanic_train %>%
  data_grid(Age, Sex) %>%
  add_predictions(survive_age.sex) %>%
  mutate(pred = logit2prob(pred))
titanic_age.sex

# A tibble: 178 x 3
     Age Sex     pred
   <dbl> <chr>  <dbl>
 1  0.42 female 0.782
 2  0.42 male   0.233
 3  0.67 female 0.781
 4  0.67 male   0.233
 5  0.75 female 0.781
 6  0.75 male   0.233
 7  0.83 female 0.781
 8  0.83 male   0.233
 9  0.92 female 0.781
10  0.92 male   0.233
# ... with 168 more rows
…
    Null deviance: 964.52  on 713  degrees of freedom
Residual deviance: 740.40  on 710  degrees of freedom
  (177 observations deleted due to missingness)
AIC: 748.4

Number of Fisher Scoring iterations: 4

## How are these coefficients interpreted?
titanic_ageXsex <- titanic_train %>%
  data_grid(Age, Sex) %>%
  add_predictions(survive_ageXsex) %>%
  mutate(pred = logit2prob(pred))
titanic_ageXsex

# A tibble: 178 x 3
     Age Sex     pred
   <dbl> <chr>  <dbl>
 1  0.42 female 0.646
 2  0.42 male   0.325
 3  0.67 female 0.647
 4  0.67 male   0.323
 5  0.75 female 0.648
 6  0.75 male   0.323
 7  0.83 female 0.648
 8  0.83 male   0.323
 9  0.92 female 0.648
10  0.92 male   0.322
# ... with 168 more rows
…
